{
  "cityName": "New Delhi",
  "preAppliedPriceRequired": true,
  "localityAddress": "New Delhi",
  "nearByRequired": false,
  "priceRangeMin": 870,
  "priceRangeMax": 1943,
  "roomCount": 1,
  "noOfPax": 1,
  "startDate": "2018-07-24",
  "endDate": "2018-07-25",
  "distance": 8,
  "distanceBucket": [
    0,
    1,
    2,
    3,
    4,
    5,
    6,
    7
  ],
  "showInvisibleProperties": false,
  "showAllProperties": false,
  "sortOrder": "PRICE_MIN_DESC",
  "requestType": "city",
  "responseType": "search",
  "deviceType": "WEB",
  "pageType": "SEARCH",
  "sessionId": "CgABj1tPEjh1SAhDAxWhAg",
  "dateLess": false,
  "mealPlan": "CP",
  "requestId": "b0994032-e279-4549-aa11-7077281f190a",
  "membershipLevel": 0
}