{
  "roomCount": 1,
  "noOfPax": 1,
  "startDate": "2018-07-20'",
  "endDate": "2018-07-27",
  "distance": 8,
  "distanceBucket": [
    0,
    1,
    2,
    3,
    4,
    5,
    6,
    7
  ],
  "propertyIds": [
    "627",
    "896",
    "605",
    "786"
  ],
  "showInvisibleProperties": false,
  "sortOrder": "DEFAULT",
  "requestType": "property",
  "responseType": "search",
  "deviceType": "CORPORATESALES",
  "pageType": "search",
  "sessionId": "CgAB 1tQNBEkUggaAwXYAg==",
  "dateLess": false,
  "mealPlan": "CP",
  "membershipLevel": 0
}